cell,Nreads
5A,122.35101
5B,110.571561
RNA_1_F,89.086308
RNA_2_F,82.895027
RPE1-A,47.243058
RPE1-B,41.98426
ES_rep1,89.621747
ES_rep2,68.425383
DE_rep1,98.22675
DE_rep2,90.373644
duodenum_rep1,100.988311
duodenum_rep2,48.78041
ileum_rep1,70.419699
ileum_rep2,162.761312
shuffle,150.0
